<?xml version="1.0" encoding="utf-8"?>
<!-- Generator: Adobe Illustrator 25.1.0, SVG Export Plug-In . SVG Version: 6.00 Build 0)  -->
<svg version="1.1" id="Layer_1" focusable="false" xmlns="http://www.w3.org/2000/svg" xmlns:xlink="http://www.w3.org/1999/xlink"
	 x="0px" y="0px" viewBox="0 0 384 512" style="enable-background:new 0 0 384 512;" xml:space="preserve">
<path d="M301.3,209.9L291.2,134h37.3c13.2,0,24-10.8,24-24v-80c0-13.2-10.8-24-24-24h-272c-13.2,0-24,10.8-24,24v80
	c0,13.2,10.8,24,24,24h37.3l-10.1,75.9C35.4,237.6,0.5,284.5,0.5,341.3c0,8.8,7.2,15.9,16,15.9l160,0v107.6c0.1,0.5,0.1,1.2,0.2,1.6
	l8,32c2,8.1,13.5,8.1,15.5,0l8-32c0.1-0.5,0.1-1.2,0.2-1.6V357.2l160,0c8.8,0,16-7.1,16-15.9C384.6,284.5,349.7,237.6,301.3,209.9
	L301.3,209.9z M33.8,325.2c6.8-42.9,39.6-76.4,79.5-94.5L128.5,102h-64V38h256v64h-64l15.3,128.8c40,18.2,72.7,51.8,79.5,94.5
	L33.8,325.2L33.8,325.2z"/>
</svg>
