<?xml version="1.0" encoding="utf-8"?>
<!-- Generator: Adobe Illustrator 25.1.0, SVG Export Plug-In . SVG Version: 6.00 Build 0)  -->
<svg version="1.1" id="Layer_1" focusable="false" xmlns="http://www.w3.org/2000/svg" xmlns:xlink="http://www.w3.org/1999/xlink"
	 x="0px" y="0px" viewBox="0 0 448 512" style="enable-background:new 0 0 448 512;" xml:space="preserve">
<path d="M335.2,296.6c-45.4-10.2-53.4,13.5-110.7,13.5c-57.1,0-65.1-23.6-110.6-13.5C47,311.4,0.5,372.5,0.5,441.1l0,26.1
	c0,13.3,10.8,24,24,24h400c13.3,0,24-10.8,24-24l0-25.7C448.5,372.9,402.1,311.6,335.2,296.6z M416.5,428.5v30.7h-384v-30.7
	c0-56.5,45.9-102.4,102.4-102.4c19.6,0,39.1,16,89.6,16c50.4,0,70-16,89.6-16C370.6,326.1,416.5,372,416.5,428.5z M224.5,275.5
	c70.7,0,128-57.3,128-128s-57.3-128-128-128s-128,57.3-128,128S153.8,275.5,224.5,275.5z M224.5,51.5c52.9,0,96,43.1,96,96
	s-43.1,96-96,96s-96-43.1-96-96S171.6,51.5,224.5,51.5z"/>
</svg>
