<?xml version="1.0" encoding="utf-8"?>
<!-- Generator: Adobe Illustrator 25.1.0, SVG Export Plug-In . SVG Version: 6.00 Build 0)  -->
<svg version="1.1" id="Layer_1" focusable="false" xmlns="http://www.w3.org/2000/svg" xmlns:xlink="http://www.w3.org/1999/xlink"
	 x="0px" y="0px" viewBox="0 0 640 512" style="enable-background:new 0 0 640 512;" xml:space="preserve">
<path d="M615.4,83H390l-57-57c-6.3-6.3-14.8-9.8-23.6-9.8H131.1c-13.9,0-25.1,11.2-25.1,25.1v108.5H25.6
	c-13.9,0-25.1,11.2-25.1,25.1v294.5c0,13.8,11.2,25.1,25.1,25.1h456.2c13.9,0,25.1-11.2,25.1-25.1v-52.4h108.5
	c13.9,0,25.1-11.2,25.1-25.1V108.1C640.5,94.3,629.3,83,615.4,83z M473.5,417.1v44H33.9V183.2H106V392c0,13.8,11.2,25.1,25.1,25.1
	H473.5z M607.1,116.4v267.2H139.4v-334h169.9l57,57c6.3,6.3,14.8,9.8,23.6,9.8H607.1z"/>
</svg>
