<?xml version="1.0" encoding="utf-8"?>
<!-- Generator: Adobe Illustrator 25.1.0, SVG Export Plug-In . SVG Version: 6.00 Build 0)  -->
<svg version="1.1" id="Layer_1" focusable="false" xmlns="http://www.w3.org/2000/svg" xmlns:xlink="http://www.w3.org/1999/xlink"
	 x="0px" y="0px" viewBox="0 0 512 512" style="enable-background:new 0 0 512 512;" xml:space="preserve">
<path d="M195.2,95.4l54.6,54.6c6,6,14.1,9.4,22.6,9.4h208v256h-448v-320H195.2 M24.5,63.4c-13.3,0-24,10.8-24,24v336
	c0,13.3,10.8,24,24,24h464c13.3,0,24-10.8,24-24v-272c0-13.3-10.8-24-24-24h-216l-54.6-54.6c-6-6-14.1-9.4-22.6-9.4L24.5,63.4z"/>
</svg>
